<?xml version="1.0" encoding="UTF-8"?>
<svg width="43px" height="36px" viewBox="0 0 43 36" version="1.1" xmlns="http://www.w3.org/2000/svg" xmlns:xlink="http://www.w3.org/1999/xlink">
    <!-- Generator: Sketch 50.2 (55047) - http://www.bohemiancoding.com/sketch -->
    <title>Group 4</title>
    <desc>Created with Sketch.</desc>
    <defs></defs>
    <g id="Symbols" stroke="none" stroke-width="1" fill="none" fill-rule="evenodd">
        <g id="Icon-Copy-13" transform="translate(0.000000, -4.000000)">
            <g id="Group-4" transform="translate(0.000000, 4.000000)">
                <g id="Group-2">
                    <path d="M2,8 L13,8 L13,36 L2,36 C0.8954305,36 1.3527075e-16,35.1045695 0,34 L0,10 C-1.3527075e-16,8.8954305 0.8954305,8 2,8 Z" id="Rectangle-12" fill="#FC6D26"></path>
                    <path d="M15,0 L28,0 C29.1045695,-2.02906125e-16 30,0.8954305 30,2 L30,36 L13,36 L13,2 C13,0.8954305 13.8954305,2.02906125e-16 15,0 Z" id="Rectangle-12-Copy" fill="#E24329"></path>
                    <path d="M30,8 L41,8 C42.1045695,8 43,8.8954305 43,10 L43,34 C43,35.1045695 42.1045695,36 41,36 L30,36 L30,8 Z" id="Rectangle-12-Copy-2" fill="#FC6D26"></path>
                </g>
                <g id="Group" transform="translate(16.000000, 3.000000)" fill="#FCBA29">
                    <rect id="Rectangle-13" x="0" y="0" width="4" height="4"></rect>
                    <rect id="Rectangle-13-Copy" x="7" y="0" width="4" height="4"></rect>
                    <rect id="Rectangle-13-Copy-3" x="0" y="7" width="4" height="4"></rect>
                    <rect id="Rectangle-13-Copy-2" x="7" y="7" width="4" height="4"></rect>
                    <rect id="Rectangle-13-Copy-5" x="0" y="14" width="4" height="4"></rect>
                    <rect id="Rectangle-13-Copy-4" x="7" y="14" width="4" height="4"></rect>
                    <rect id="Rectangle-13-Copy-7" x="0" y="21" width="4" height="4"></rect>
                    <rect id="Rectangle-13-Copy-6" x="7" y="21" width="4" height="4"></rect>
                </g>
                <g id="Group-Copy-2" transform="translate(32.000000, 12.000000)" fill="#FCBA29">
                    <rect id="Rectangle-13-Copy-2" x="5" y="0" width="3" height="3"></rect>
                    <rect id="Rectangle-13-Copy-11" x="0" y="0" width="3" height="3"></rect>
                    <rect id="Rectangle-13-Copy-13" x="5" y="5" width="3" height="3"></rect>
                    <rect id="Rectangle-13-Copy-12" x="0" y="5" width="3" height="3"></rect>
                    <rect id="Rectangle-13-Copy-15" x="5" y="10" width="3" height="3"></rect>
                    <rect id="Rectangle-13-Copy-14" x="0" y="10" width="3" height="3"></rect>
                </g>
                <g id="Group-Copy-3" transform="translate(3.000000, 12.000000)" fill="#FCBA29">
                    <rect id="Rectangle-13-Copy-2" x="5" y="0" width="3" height="3"></rect>
                    <rect id="Rectangle-13-Copy-11" x="0" y="0" width="3" height="3"></rect>
                    <rect id="Rectangle-13-Copy-13" x="5" y="5" width="3" height="3"></rect>
                    <rect id="Rectangle-13-Copy-12" x="0" y="5" width="3" height="3"></rect>
                    <rect id="Rectangle-13-Copy-15" x="5" y="10" width="3" height="3"></rect>
                    <rect id="Rectangle-13-Copy-14" x="0" y="10" width="3" height="3"></rect>
                </g>
                <g id="Group-3" transform="translate(4.000000, 31.000000)" fill="#FCBA29">
                    <rect id="Rectangle-13-Copy-10" x="29" y="0" width="6" height="5"></rect>
                    <rect id="Rectangle-13-Copy-16" x="0" y="0" width="6" height="5"></rect>
                    <rect id="Rectangle-13-Copy-8" x="14" y="0" width="7" height="5"></rect>
                </g>
            </g>
        </g>
    </g>
</svg>