<?xml version="1.0" encoding="UTF-8"?>
<svg width="39px" height="43px" viewBox="0 0 39 43" version="1.1" xmlns="http://www.w3.org/2000/svg" xmlns:xlink="http://www.w3.org/1999/xlink">
    <!-- Generator: Sketch 50.2 (55047) - http://www.bohemiancoding.com/sketch -->
    <title>Group</title>
    <desc>Created with Sketch.</desc>
    <defs></defs>
    <g id="Symbols" stroke="none" stroke-width="1" fill="none" fill-rule="evenodd">
        <g id="Icon-Copy-12" transform="translate(-2.000000, 0.000000)">
            <g id="Group" transform="translate(2.000000, 0.000000)">
                <path d="M34,18.3421053 L28.9588289,18.3421053 L28.9588289,14.4736777 C28.9588289,9.23720724 24.7195916,5 19.5,5 C14.2804084,5 10.0411711,9.23720724 10.0411711,14.4736777 L10.0411711,18.1728726 L5,18.1728726 L5,14.4736777 C5,6.48438899 11.4874957,0 19.5,0 C27.5125043,0 34,6.48438899 34,14.4736777 L34,18.3421053 Z" id="Oval" fill="#E24329" fill-rule="nonzero"></path>
                <rect id="Rectangle-14" fill="#FC6D26" x="0" y="15" width="39" height="28" rx="2"></rect>
                <path d="M17.5714286,30.4824091 C16.0511053,29.7673095 15,28.2329889 15,26.4555921 C15,23.9948365 17.0147186,22 19.5,22 C21.9852814,22 24,23.9948365 24,26.4555921 C24,28.2329889 22.9488947,29.7673095 21.4285714,30.4824091 L21.4285714,36.0032895 L17.5714286,36.0032895 L17.5714286,30.4824091 Z" id="Combined-Shape" fill="#FCBA29"></path>
            </g>
        </g>
    </g>
</svg>